…
# Join to ships for human-readable wind descriptions
if (requireNamespace("dplyr", quietly = TRUE)) {
  dplyr::left_join(ships, beaufort_scale, by = "wind_speed_class")
}
#> # A tibble: 12,310 × 24
#>    record_id date       time       latitude longitude hemisphere activity  speed
#>        <int> <date>     <hms>         <dbl>     <dbl> <fct>      <fct>     <dbl>
#>  1   1083001 1975-10-15 50400 secs    -45.9      165. E          steaming…  15  
#>  2   1084001 1975-11-03 47400 secs    -35.5      125  E          steaming…  14  
#>  3   1084002 1975-11-04 51600 secs    -37.7      132. E          steaming…  14.5
#>  4   1084003 1975-11-08 58500 secs    -40        162  E          steaming…  14.6
#>  5   1086001 1975-11-16 45000 secs    -36.2      175. E          steaming…  15  
#>  6   1086002 1975-11-16 55800 secs    -35.4      175. E          steaming…  15  
#>  7   1086003 1975-11-17 52200 secs    -35.2      168  E          steaming…  15  
#>  8   1086004 1975-11-17 59400 secs    -35.3      167. E          steaming…  15  
#>  9   1086005 1975-11-18 52200 secs    -36.5      161  E          steaming…  15  
#> 10   1086006 1975-11-18 59400 secs    -36.3      160. E          steaming…  15  
#> # ℹ 12,300 more rows
#> # ℹ 16 more variables: direction <int>, cloud_cover <ord>, precipitation <fct>,
#> #   wind_speed_class <int>, wind_direction <int>, air_temperature <dbl>,
#> #   pressure <int>, sea_state_class <int>, sea_surface_temperature <dbl>,
#> #   depth <int>, observer <fct>, census_method <ord>, season <ord>,
#> #   wind_description <ord>, wind_speed_knots_min <int>,
#> #   wind_speed_knots_max <int>
```
