…
## See also

[ships](https://jonthegeek.github.io/seabirddata/reference/ships.md) for
the corresponding ship and environmental records. The script used to
prepare this dataset:
<https://github.com/jonthegeek/seabirddata/blob/main/data-raw/birds.R>

## Examples

``` r
birds
#> # A tibble: 49,019 × 26
#>    bird_observation_id record_id species_common_name      species_scientific_n…¹
#>                  <int>     <int> <chr>                    <chr>                 
#>  1                   1   1083001 Royal / Wandering albat… Diomedea epomophora /…
#>  2                   2   1083001 Black-browed albatross … Diomedea impavida / m…
#>  3                   3   1083001 Cape petrel              Daption capense       
#>  4                   4   1083001 Fairy prion              Pachyptila turtur     
#>  5                   5   1083001 Sooty shearwater         Puffinus griseus      
#>  6                   6   1084001 Royal albatross sensu l… Diomedea epomophora /…
#>  7                   7   1084001 Black-browed albatross … Diomedea impavida / m…
#>  8                   8   1084001 Sooty shearwater         Puffinus griseus      
#>  9                   9   1084002 Royal albatross sensu l… Diomedea epomophora /…
#> 10                  10   1084002 Black-browed albatross … Diomedea impavida / m…
#> # ℹ 49,009 more rows
#> # ℹ abbreviated name: ¹​species_scientific_name
#> # ℹ 22 more variables: species_abbreviation <chr>, age <ord>,
#> #   wan_plumage_phase <ord>, plumage_phase <ord>, sex <fct>, count <int>,
#> #   n_feeding <int>, feeding <lgl>, n_sitting_on_water <int>,
#> #   sitting_on_water <lgl>, n_sitting_on_ice <int>, sitting_on_ice <lgl>,
#> #   sitting_on_ship <lgl>, in_hand <lgl>, n_flying_past <int>, …

# Join with ship records for environmental context
if (requireNamespace("dplyr", quietly = TRUE)) {
  dplyr::left_join(birds, ships, by = "record_id")
}
#> # A tibble: 49,019 × 46
#>    bird_observation_id record_id species_common_name      species_scientific_n…¹
#>                  <int>     <int> <chr>                    <chr>                 
#>  1                   1   1083001 Royal / Wandering albat… Diomedea epomophora /…
#>  2                   2   1083001 Black-browed albatross … Diomedea impavida / m…
#>  3                   3   1083001 Cape petrel              Daption capense       
#>  4                   4   1083001 Fairy prion              Pachyptila turtur     
#>  5                   5   1083001 Sooty shearwater         Puffinus griseus      
#>  6                   6   1084001 Royal albatross sensu l… Diomedea epomophora /…
#>  7                   7   1084001 Black-browed albatross … Diomedea impavida / m…
#>  8                   8   1084001 Sooty shearwater         Puffinus griseus      
#>  9                   9   1084002 Royal albatross sensu l… Diomedea epomophora /…
#> 10                  10   1084002 Black-browed albatross … Diomedea impavida / m…
#> # ℹ 49,009 more rows
#> # ℹ abbreviated name: ¹​species_scientific_name
#> # ℹ 42 more variables: species_abbreviation <chr>, age <ord>,
#> #   wan_plumage_phase <ord>, plumage_phase <ord>, sex <fct>, count <int>,
#> #   n_feeding <int>, feeding <lgl>, n_sitting_on_water <int>,
#> #   sitting_on_water <lgl>, n_sitting_on_ice <int>, sitting_on_ice <lgl>,
#> #   sitting_on_ship <lgl>, in_hand <lgl>, n_flying_past <int>, …
```
